<mxfile host="app.diagrams.net" modified="2023-01-06T15:14:49.189Z" agent="5.0 (Windows NT 10.0; Win64; x64) AppleWebKit/537.36 (KHTML, like Gecko) Chrome/108.0.0.0 Safari/537.36 OPR/94.0.0.0" etag="mdoT7itLYfCR7mKAVFuv" version="20.8.2" type="gitlab">
  <diagram id="eGio_Iw_4hkxHFcu-VZd" name="Página-1">
    <mxGraphModel dx="2514" dy="892" grid="1" gridSize="10" guides="1" tooltips="1" connect="1" arrows="1" fold="1" page="1" pageScale="1" pageWidth="827" pageHeight="1169" math="0" shadow="0">
      <root>
        <mxCell id="0" />
        <mxCell id="1" parent="0" />
        <mxCell id="RYlAqQ0q_W_b2alZrYNp-20" value="t" style="rounded=1;whiteSpace=wrap;html=1;fillColor=#cce5ff;strokeColor=#36393d;dashed=1;strokeWidth=3;" parent="1" vertex="1">
          <mxGeometry x="-650" y="252.13" width="1430" height="450" as="geometry" />
        </mxCell>
        <mxCell id="iWd6OxUkK_nz3C9JHXQi-9" value="" style="rounded=1;whiteSpace=wrap;html=1;fontSize=28;container=0;strokeWidth=3;" parent="1" vertex="1">
          <mxGeometry x="-439" y="30" width="1000" height="170" as="geometry" />
        </mxCell>
        <mxCell id="iWd6OxUkK_nz3C9JHXQi-34" value="" style="group" parent="1" vertex="1" connectable="0">
          <mxGeometry x="-159" y="40" width="411.5" height="85.75" as="geometry" />
        </mxCell>
        <mxCell id="iWd6OxUkK_nz3C9JHXQi-3" value="" style="shape=image;html=1;verticalAlign=top;verticalLabelPosition=bottom;labelBackgroundColor=#ffffff;imageAspect=0;aspect=fixed;image=https://cdn0.iconfinder.com/data/icons/phosphor-bold-vol-3-1/256/git-pull-request-duotone-128.png;container=0;" parent="iWd6OxUkK_nz3C9JHXQi-34" vertex="1">
          <mxGeometry x="370" y="44.25" width="41.5" height="41.5" as="geometry" />
        </mxCell>
        <mxCell id="iWd6OxUkK_nz3C9JHXQi-29" value="" style="group" parent="iWd6OxUkK_nz3C9JHXQi-34" vertex="1" connectable="0">
          <mxGeometry width="374" height="82.5" as="geometry" />
        </mxCell>
        <mxCell id="iWd6OxUkK_nz3C9JHXQi-1" value="" style="shape=image;html=1;verticalAlign=top;verticalLabelPosition=bottom;labelBackgroundColor=#ffffff;imageAspect=0;aspect=fixed;image=https://cdn4.iconfinder.com/data/icons/socialcones/508/Github-128.png;container=0;" parent="iWd6OxUkK_nz3C9JHXQi-29" vertex="1">
          <mxGeometry x="190" y="42.5" width="38.25" height="38.25" as="geometry" />
        </mxCell>
        <mxCell id="iWd6OxUkK_nz3C9JHXQi-4" value="Master" style="text;html=1;strokeColor=none;fillColor=none;align=center;verticalAlign=middle;whiteSpace=wrap;rounded=0;fontFamily=JetBrains Mono;fontSource=https%3A%2F%2Ffonts.googleapis.com%2Fcss%3Ffamily%3DJetBrains%2BMono;fontStyle=1;fontSize=28;container=0;" parent="iWd6OxUkK_nz3C9JHXQi-29" vertex="1">
          <mxGeometry x="254" y="42.5" width="120" height="40" as="geometry" />
        </mxCell>
        <mxCell id="iWd6OxUkK_nz3C9JHXQi-6" value="Git Flow" style="text;html=1;strokeColor=none;fillColor=none;align=center;verticalAlign=middle;whiteSpace=wrap;rounded=0;fontFamily=JetBrains Mono;fontSource=https%3A%2F%2Ffonts.googleapis.com%2Fcss%3Ffamily%3DJetBrains%2BMono;fontStyle=1;fontSize=28;container=0;" parent="iWd6OxUkK_nz3C9JHXQi-29" vertex="1">
          <mxGeometry x="120" width="160" height="34.25" as="geometry" />
        </mxCell>
        <mxCell id="iWd6OxUkK_nz3C9JHXQi-7" value="" style="endArrow=classic;html=1;rounded=0;fontSize=28;entryX=0;entryY=0.5;entryDx=0;entryDy=0;" parent="iWd6OxUkK_nz3C9JHXQi-29" source="iWd6OxUkK_nz3C9JHXQi-10" target="iWd6OxUkK_nz3C9JHXQi-1" edge="1">
          <mxGeometry width="50" height="50" relative="1" as="geometry">
            <mxPoint x="60" y="62" as="sourcePoint" />
            <mxPoint x="200" y="290" as="targetPoint" />
          </mxGeometry>
        </mxCell>
        <mxCell id="iWd6OxUkK_nz3C9JHXQi-8" value="" style="endArrow=classic;html=1;rounded=0;fontSize=28;entryX=0;entryY=0.5;entryDx=0;entryDy=0;exitX=1;exitY=0.5;exitDx=0;exitDy=0;" parent="iWd6OxUkK_nz3C9JHXQi-29" source="iWd6OxUkK_nz3C9JHXQi-1" target="iWd6OxUkK_nz3C9JHXQi-4" edge="1">
          <mxGeometry width="50" height="50" relative="1" as="geometry">
            <mxPoint x="10" y="73" as="sourcePoint" />
            <mxPoint x="90" y="73.375" as="targetPoint" />
          </mxGeometry>
        </mxCell>
        <mxCell id="iWd6OxUkK_nz3C9JHXQi-10" value="" style="shape=image;html=1;verticalAlign=top;verticalLabelPosition=bottom;labelBackgroundColor=#ffffff;imageAspect=0;aspect=fixed;image=https://cdn0.iconfinder.com/data/icons/phosphor-regular-vol-3/256/git-diff-128.png;fontSize=28;container=0;" parent="iWd6OxUkK_nz3C9JHXQi-29" vertex="1">
          <mxGeometry x="120" y="41.629999999999995" width="40" height="40" as="geometry" />
        </mxCell>
        <mxCell id="iWd6OxUkK_nz3C9JHXQi-11" value="Develop" style="text;html=1;strokeColor=none;fillColor=none;align=center;verticalAlign=middle;whiteSpace=wrap;rounded=0;fontFamily=JetBrains Mono;fontSource=https%3A%2F%2Ffonts.googleapis.com%2Fcss%3Ffamily%3DJetBrains%2BMono;fontStyle=1;fontSize=28;container=0;" parent="iWd6OxUkK_nz3C9JHXQi-29" vertex="1">
          <mxGeometry y="41.629999999999995" width="120" height="40" as="geometry" />
        </mxCell>
        <mxCell id="iWd6OxUkK_nz3C9JHXQi-43" value="" style="group" parent="1" vertex="1" connectable="0">
          <mxGeometry x="-399" y="140" width="189" height="38.999999999999986" as="geometry" />
        </mxCell>
        <mxCell id="iWd6OxUkK_nz3C9JHXQi-35" value="" style="shape=image;html=1;verticalAlign=top;verticalLabelPosition=bottom;labelBackgroundColor=#ffffff;imageAspect=0;aspect=fixed;image=https://cdn0.iconfinder.com/data/icons/phosphor-fill-vol-3/256/git-branch-fill-128.png;rounded=1;strokeColor=default;strokeWidth=4;fontSize=21;" parent="iWd6OxUkK_nz3C9JHXQi-43" vertex="1">
          <mxGeometry x="150" width="39" height="39" as="geometry" />
        </mxCell>
        <mxCell id="iWd6OxUkK_nz3C9JHXQi-40" value="add-ms.git" style="text;html=1;strokeColor=none;fillColor=none;align=center;verticalAlign=middle;whiteSpace=wrap;rounded=0;fontFamily=JetBrains Mono;fontSource=https%3A%2F%2Ffonts.googleapis.com%2Fcss%3Ffamily%3DJetBrains%2BMono;fontStyle=1;fontSize=21;" parent="iWd6OxUkK_nz3C9JHXQi-43" vertex="1">
          <mxGeometry y="0.10999999999999943" width="150" height="38.89" as="geometry" />
        </mxCell>
        <mxCell id="iWd6OxUkK_nz3C9JHXQi-44" style="edgeStyle=orthogonalEdgeStyle;rounded=0;orthogonalLoop=1;jettySize=auto;html=1;entryX=0.5;entryY=1;entryDx=0;entryDy=0;strokeWidth=3;fontSize=21;exitX=0.5;exitY=0;exitDx=0;exitDy=0;" parent="1" source="iWd6OxUkK_nz3C9JHXQi-16" target="iWd6OxUkK_nz3C9JHXQi-40" edge="1">
          <mxGeometry relative="1" as="geometry" />
        </mxCell>
        <mxCell id="iWd6OxUkK_nz3C9JHXQi-47" style="edgeStyle=orthogonalEdgeStyle;rounded=0;orthogonalLoop=1;jettySize=auto;html=1;strokeWidth=3;fontSize=21;exitX=1;exitY=0.5;exitDx=0;exitDy=0;dashed=1;entryX=0.5;entryY=1;entryDx=0;entryDy=0;" parent="1" source="iWd6OxUkK_nz3C9JHXQi-16" target="RYlAqQ0q_W_b2alZrYNp-6" edge="1">
          <mxGeometry relative="1" as="geometry">
            <Array as="points">
              <mxPoint x="-200" y="526" />
              <mxPoint x="-200" y="622" />
              <mxPoint x="600" y="622" />
            </Array>
            <mxPoint x="330" y="254" as="targetPoint" />
          </mxGeometry>
        </mxCell>
        <mxCell id="iWd6OxUkK_nz3C9JHXQi-49" value="" style="group" parent="1" vertex="1" connectable="0">
          <mxGeometry x="335" y="140" width="189" height="39" as="geometry" />
        </mxCell>
        <mxCell id="iWd6OxUkK_nz3C9JHXQi-50" value="" style="shape=image;html=1;verticalAlign=top;verticalLabelPosition=bottom;labelBackgroundColor=#ffffff;imageAspect=0;aspect=fixed;image=https://cdn0.iconfinder.com/data/icons/phosphor-fill-vol-3/256/git-branch-fill-128.png;rounded=1;strokeColor=default;strokeWidth=4;fontSize=21;" parent="iWd6OxUkK_nz3C9JHXQi-49" vertex="1">
          <mxGeometry x="150" width="39" height="39" as="geometry" />
        </mxCell>
        <mxCell id="iWd6OxUkK_nz3C9JHXQi-51" value="properties.git" style="text;html=1;strokeColor=none;fillColor=none;align=center;verticalAlign=middle;whiteSpace=wrap;rounded=0;fontFamily=JetBrains Mono;fontSource=https%3A%2F%2Ffonts.googleapis.com%2Fcss%3Ffamily%3DJetBrains%2BMono;fontStyle=1;fontSize=21;" parent="iWd6OxUkK_nz3C9JHXQi-49" vertex="1">
          <mxGeometry x="-40" y="0.11" width="190" height="38.89" as="geometry" />
        </mxCell>
        <mxCell id="iWd6OxUkK_nz3C9JHXQi-52" style="rounded=0;orthogonalLoop=1;jettySize=auto;html=1;entryX=0.5;entryY=1;entryDx=0;entryDy=0;strokeWidth=3;fontSize=21;exitX=0.927;exitY=1.24;exitDx=0;exitDy=0;exitPerimeter=0;edgeStyle=orthogonalEdgeStyle;" parent="1" source="RYlAqQ0q_W_b2alZrYNp-7" target="iWd6OxUkK_nz3C9JHXQi-51" edge="1">
          <mxGeometry relative="1" as="geometry">
            <mxPoint x="470" y="227.77672658467372" as="sourcePoint" />
          </mxGeometry>
        </mxCell>
        <mxCell id="RYlAqQ0q_W_b2alZrYNp-1" value="" style="group;fillColor=none;fillStyle=dashed;strokeColor=none;" parent="1" vertex="1" connectable="0">
          <mxGeometry x="-65" y="418.04" width="300" height="157.15" as="geometry" />
        </mxCell>
        <mxCell id="RYlAqQ0q_W_b2alZrYNp-2" value="" style="rounded=1;whiteSpace=wrap;html=1;fontSize=28;strokeWidth=4;fillStyle=solid;" parent="RYlAqQ0q_W_b2alZrYNp-1" vertex="1">
          <mxGeometry y="10" width="280" height="141.3" as="geometry" />
        </mxCell>
        <mxCell id="RYlAqQ0q_W_b2alZrYNp-4" value="get-percent-ms" style="text;html=1;strokeColor=none;fillColor=none;align=center;verticalAlign=middle;whiteSpace=wrap;rounded=0;fontFamily=JetBrains Mono;fontSource=https%3A%2F%2Ffonts.googleapis.com%2Fcss%3Ffamily%3DJetBrains%2BMono;fontStyle=1;fontSize=28;" parent="RYlAqQ0q_W_b2alZrYNp-1" vertex="1">
          <mxGeometry x="20" y="21.745706783369812" width="240" height="55.40483150984683" as="geometry" />
        </mxCell>
        <mxCell id="9HbP8Y8yWhVFwPsVIyR0-1" value="" style="dashed=0;outlineConnect=0;html=1;align=center;labelPosition=center;verticalLabelPosition=bottom;verticalAlign=top;shape=mxgraph.weblogos.java;rounded=1;" parent="RYlAqQ0q_W_b2alZrYNp-1" vertex="1">
          <mxGeometry x="160" y="77.14999999999998" width="34.4" height="65" as="geometry" />
        </mxCell>
        <mxCell id="9HbP8Y8yWhVFwPsVIyR0-2" value="" style="sketch=0;aspect=fixed;html=1;points=[];align=center;image;fontSize=12;image=img/lib/mscae/Docker.svg;rounded=1;" parent="RYlAqQ0q_W_b2alZrYNp-1" vertex="1">
          <mxGeometry x="210" y="96.89999999999998" width="50" height="41" as="geometry" />
        </mxCell>
        <mxCell id="RYlAqQ0q_W_b2alZrYNp-9" value="" style="group" parent="1" vertex="1" connectable="0">
          <mxGeometry x="460" y="375.19" width="300" height="200" as="geometry" />
        </mxCell>
        <mxCell id="RYlAqQ0q_W_b2alZrYNp-7" value="Spring cloud config" style="text;html=1;strokeColor=none;fillColor=none;align=center;verticalAlign=middle;whiteSpace=wrap;rounded=0;fontFamily=JetBrains Mono;fontSource=https%3A%2F%2Ffonts.googleapis.com%2Fcss%3Ffamily%3DJetBrains%2BMono;fontStyle=1;fontSize=21;" parent="RYlAqQ0q_W_b2alZrYNp-9" vertex="1">
          <mxGeometry y="-30" width="150" height="64.81" as="geometry" />
        </mxCell>
        <mxCell id="RYlAqQ0q_W_b2alZrYNp-6" value="" style="rounded=1;whiteSpace=wrap;html=1;fontSize=28;strokeWidth=4;fillStyle=solid;" parent="RYlAqQ0q_W_b2alZrYNp-9" vertex="1">
          <mxGeometry y="49.62" width="280" height="150.38" as="geometry" />
        </mxCell>
        <mxCell id="RYlAqQ0q_W_b2alZrYNp-8" value="ms-config" style="text;html=1;strokeColor=none;fillColor=none;align=center;verticalAlign=middle;whiteSpace=wrap;rounded=0;fontFamily=JetBrains Mono;fontSource=https%3A%2F%2Ffonts.googleapis.com%2Fcss%3Ffamily%3DJetBrains%2BMono;fontStyle=1;fontSize=28;" parent="RYlAqQ0q_W_b2alZrYNp-9" vertex="1">
          <mxGeometry x="20" y="71.78999999999995" width="240" height="40.28" as="geometry" />
        </mxCell>
        <mxCell id="RYlAqQ0q_W_b2alZrYNp-29" value="" style="dashed=0;outlineConnect=0;html=1;align=center;labelPosition=center;verticalLabelPosition=bottom;verticalAlign=top;shape=mxgraph.weblogos.java;rounded=1;" parent="RYlAqQ0q_W_b2alZrYNp-9" vertex="1">
          <mxGeometry x="150" y="114.81" width="34.4" height="65" as="geometry" />
        </mxCell>
        <mxCell id="RYlAqQ0q_W_b2alZrYNp-30" value="" style="sketch=0;aspect=fixed;html=1;points=[];align=center;image;fontSize=12;image=img/lib/mscae/Docker.svg;rounded=1;" parent="RYlAqQ0q_W_b2alZrYNp-9" vertex="1">
          <mxGeometry x="200" y="134.56" width="50" height="41" as="geometry" />
        </mxCell>
        <mxCell id="RYlAqQ0q_W_b2alZrYNp-13" style="rounded=0;orthogonalLoop=1;jettySize=auto;html=1;dashed=1;strokeWidth=3;" parent="1" source="RYlAqQ0q_W_b2alZrYNp-2" target="RYlAqQ0q_W_b2alZrYNp-6" edge="1">
          <mxGeometry relative="1" as="geometry" />
        </mxCell>
        <mxCell id="RYlAqQ0q_W_b2alZrYNp-16" value="" style="group" parent="1" vertex="1" connectable="0">
          <mxGeometry x="-48" y="140" width="189" height="39" as="geometry" />
        </mxCell>
        <mxCell id="RYlAqQ0q_W_b2alZrYNp-17" value="" style="shape=image;html=1;verticalAlign=top;verticalLabelPosition=bottom;labelBackgroundColor=#ffffff;imageAspect=0;aspect=fixed;image=https://cdn0.iconfinder.com/data/icons/phosphor-fill-vol-3/256/git-branch-fill-128.png;rounded=1;strokeColor=default;strokeWidth=4;fontSize=21;" parent="RYlAqQ0q_W_b2alZrYNp-16" vertex="1">
          <mxGeometry x="150" width="39" height="39" as="geometry" />
        </mxCell>
        <mxCell id="RYlAqQ0q_W_b2alZrYNp-18" value="get-percent.git" style="text;html=1;strokeColor=none;fillColor=none;align=center;verticalAlign=middle;whiteSpace=wrap;rounded=0;fontFamily=JetBrains Mono;fontSource=https%3A%2F%2Ffonts.googleapis.com%2Fcss%3Ffamily%3DJetBrains%2BMono;fontStyle=1;fontSize=21;" parent="RYlAqQ0q_W_b2alZrYNp-16" vertex="1">
          <mxGeometry x="-60" y="0.11" width="210" height="38.89" as="geometry" />
        </mxCell>
        <mxCell id="RYlAqQ0q_W_b2alZrYNp-19" style="edgeStyle=orthogonalEdgeStyle;rounded=0;orthogonalLoop=1;jettySize=auto;html=1;strokeWidth=3;" parent="1" source="RYlAqQ0q_W_b2alZrYNp-2" target="RYlAqQ0q_W_b2alZrYNp-18" edge="1">
          <mxGeometry relative="1" as="geometry" />
        </mxCell>
        <mxCell id="RYlAqQ0q_W_b2alZrYNp-23" value="" style="rounded=1;whiteSpace=wrap;html=1;dashed=1;strokeWidth=3;fillColor=#cce5ff;strokeColor=#36393d;fillStyle=solid;" parent="1" vertex="1">
          <mxGeometry x="-630" y="800" width="1430" height="450" as="geometry" />
        </mxCell>
        <mxCell id="RYlAqQ0q_W_b2alZrYNp-24" value="API" style="text;html=1;strokeColor=none;fillColor=none;align=center;verticalAlign=middle;whiteSpace=wrap;rounded=0;fontFamily=JetBrains Mono;fontSource=https%3A%2F%2Ffonts.googleapis.com%2Fcss%3Ffamily%3DJetBrains%2BMono;fontStyle=1;fontSize=28;" parent="1" vertex="1">
          <mxGeometry x="-630" y="270" width="110" height="40.28" as="geometry" />
        </mxCell>
        <mxCell id="RYlAqQ0q_W_b2alZrYNp-25" value="KAFKA" style="text;html=1;strokeColor=none;fillColor=none;align=center;verticalAlign=middle;whiteSpace=wrap;rounded=0;fontFamily=JetBrains Mono;fontSource=https%3A%2F%2Ffonts.googleapis.com%2Fcss%3Ffamily%3DJetBrains%2BMono;fontStyle=1;fontSize=28;" parent="1" vertex="1">
          <mxGeometry x="-610" y="850" width="110" height="40.28" as="geometry" />
        </mxCell>
        <mxCell id="nMOfVWlvFG3KslBj-S8d-4" style="edgeStyle=orthogonalEdgeStyle;rounded=0;orthogonalLoop=1;jettySize=auto;html=1;entryX=0.5;entryY=0;entryDx=0;entryDy=0;entryPerimeter=0;exitX=0.643;exitY=1.023;exitDx=0;exitDy=0;strokeWidth=3;exitPerimeter=0;" edge="1" parent="1" source="iWd6OxUkK_nz3C9JHXQi-16" target="nMOfVWlvFG3KslBj-S8d-1">
          <mxGeometry relative="1" as="geometry">
            <Array as="points">
              <mxPoint x="-420" y="970" />
            </Array>
          </mxGeometry>
        </mxCell>
        <mxCell id="iWd6OxUkK_nz3C9JHXQi-16" value="" style="rounded=1;whiteSpace=wrap;html=1;fontSize=28;strokeWidth=4;fillStyle=solid;" parent="1" vertex="1">
          <mxGeometry x="-600" y="442.04" width="280" height="167.96" as="geometry" />
        </mxCell>
        <mxCell id="iWd6OxUkK_nz3C9JHXQi-15" value="add-numbers-ms" style="text;html=1;strokeColor=none;fillColor=none;align=center;verticalAlign=middle;whiteSpace=wrap;rounded=0;fontFamily=JetBrains Mono;fontSource=https%3A%2F%2Ffonts.googleapis.com%2Fcss%3Ffamily%3DJetBrains%2BMono;fontStyle=1;fontSize=28;" parent="1" vertex="1">
          <mxGeometry x="-580" y="460.0049452954048" width="240" height="59.93522975929978" as="geometry" />
        </mxCell>
        <mxCell id="RYlAqQ0q_W_b2alZrYNp-27" value="" style="dashed=0;outlineConnect=0;html=1;align=center;labelPosition=center;verticalLabelPosition=bottom;verticalAlign=top;shape=mxgraph.weblogos.java;rounded=1;" parent="1" vertex="1">
          <mxGeometry x="-450" y="524.25" width="34.4" height="65" as="geometry" />
        </mxCell>
        <mxCell id="RYlAqQ0q_W_b2alZrYNp-28" value="" style="sketch=0;aspect=fixed;html=1;points=[];align=center;image;fontSize=12;image=img/lib/mscae/Docker.svg;rounded=1;" parent="1" vertex="1">
          <mxGeometry x="-400" y="544" width="50" height="41" as="geometry" />
        </mxCell>
        <mxCell id="nMOfVWlvFG3KslBj-S8d-5" style="edgeStyle=orthogonalEdgeStyle;rounded=0;orthogonalLoop=1;jettySize=auto;html=1;strokeWidth=3;exitX=0.5;exitY=1;exitDx=0;exitDy=0;exitPerimeter=0;" edge="1" parent="1" source="nMOfVWlvFG3KslBj-S8d-1">
          <mxGeometry relative="1" as="geometry">
            <mxPoint x="90" y="570" as="targetPoint" />
            <Array as="points">
              <mxPoint x="505" y="970" />
              <mxPoint x="505" y="740" />
              <mxPoint x="90" y="740" />
              <mxPoint x="90" y="570" />
            </Array>
          </mxGeometry>
        </mxCell>
        <mxCell id="nMOfVWlvFG3KslBj-S8d-1" value="" style="shape=cylinder3;whiteSpace=wrap;html=1;boundedLbl=1;backgroundOutline=1;size=15;rotation=-90;" vertex="1" parent="1">
          <mxGeometry x="60" y="575.19" width="60" height="790" as="geometry" />
        </mxCell>
        <mxCell id="nMOfVWlvFG3KslBj-S8d-3" value="percent-request" style="text;html=1;strokeColor=none;fillColor=none;align=center;verticalAlign=middle;whiteSpace=wrap;rounded=0;fontFamily=JetBrains Mono;fontSource=https%3A%2F%2Ffonts.googleapis.com%2Fcss%3Ffamily%3DJetBrains%2BMono;fontStyle=1;fontSize=28;" vertex="1" parent="1">
          <mxGeometry x="-110" y="940.22" width="370" height="59.94" as="geometry" />
        </mxCell>
        <mxCell id="nMOfVWlvFG3KslBj-S8d-9" style="edgeStyle=orthogonalEdgeStyle;rounded=0;orthogonalLoop=1;jettySize=auto;html=1;entryX=0.391;entryY=1.03;entryDx=0;entryDy=0;entryPerimeter=0;strokeWidth=3;" edge="1" parent="1" source="nMOfVWlvFG3KslBj-S8d-6" target="iWd6OxUkK_nz3C9JHXQi-16">
          <mxGeometry relative="1" as="geometry">
            <Array as="points">
              <mxPoint x="-490" y="1085" />
            </Array>
          </mxGeometry>
        </mxCell>
        <mxCell id="nMOfVWlvFG3KslBj-S8d-6" value="" style="shape=cylinder3;whiteSpace=wrap;html=1;boundedLbl=1;backgroundOutline=1;size=15;rotation=-90;" vertex="1" parent="1">
          <mxGeometry x="60" y="690" width="60" height="790" as="geometry" />
        </mxCell>
        <mxCell id="nMOfVWlvFG3KslBj-S8d-7" value="percent-requested" style="text;html=1;strokeColor=none;fillColor=none;align=center;verticalAlign=middle;whiteSpace=wrap;rounded=0;fontFamily=JetBrains Mono;fontSource=https%3A%2F%2Ffonts.googleapis.com%2Fcss%3Ffamily%3DJetBrains%2BMono;fontStyle=1;fontSize=28;" vertex="1" parent="1">
          <mxGeometry x="-110" y="1055.03" width="370" height="59.94" as="geometry" />
        </mxCell>
        <mxCell id="nMOfVWlvFG3KslBj-S8d-8" style="edgeStyle=orthogonalEdgeStyle;rounded=0;orthogonalLoop=1;jettySize=auto;html=1;strokeWidth=3;entryX=0.5;entryY=1;entryDx=0;entryDy=0;entryPerimeter=0;" edge="1" parent="1" source="RYlAqQ0q_W_b2alZrYNp-2" target="nMOfVWlvFG3KslBj-S8d-6">
          <mxGeometry relative="1" as="geometry">
            <Array as="points">
              <mxPoint x="50" y="770" />
              <mxPoint x="580" y="770" />
              <mxPoint x="580" y="1085" />
            </Array>
          </mxGeometry>
        </mxCell>
      </root>
    </mxGraphModel>
  </diagram>
</mxfile>
